Processor/simulation/qsim/ALU.msim.vcd
$comment
	File created using the following command:
		vcd file ALU.msim.vcd -direction
$end
$date
	Mon Oct 24 10:30:24 2022
$end
$version
	ModelSim Version 10.5b
$end
$timescale
	1ps
$end

$scope module EU_vlg_vec_tst $end
$var reg 1 ! clk $end
$var reg 6 " Op [5:0] $end
$var reg 4 # V [3:0] $end
$var wire 1 $ ALU_O0 $end
$var wire 1 % ALU_O1 $end
$var wire 1 & ALU_O2 $end
$var wire 1 ' ALU_O3 $end
$var wire 1 ( OUTSEL0 $end
$var wire 1 ) OUTSEL1 $end
$var wire 1 * OUTSEL2 $end
$var wire 1 + OUTSEL3 $end
$var wire 1 , Reg_A0 $end
$var wire 1 - Reg_A1 $end
$var wire 1 . Reg_A2 $end
$var wire 1 / Reg_A3 $end
$var wire 1 0 Reg_B0 $end
$var wire 1 1 Reg_B1 $end
$var wire 1 2 Reg_B2 $end
$var wire 1 3 Reg_B3 $end
$var wire 1 4 Reg_C0 $end
$var wire 1 5 Reg_C1 $end
$var wire 1 6 Reg_C2 $end
$var wire 1 7 Reg_C3 $end
$var wire 1 8 REGFILE0 $end
$var wire 1 9 REGFILE1 $end
$var wire 1 : REGFILE2 $end
$var wire 1 ; REGFILE3 $end
$var wire 1 < REGFILE4 $end
$var wire 1 = REGFILE5 $end
$var wire 1 > REGFILE6 $end
$var wire 1 ? REGFILE7 $end

$scope module i1 $end
$var wire 1 @ gnd $end
$var wire 1 A vcc $end
$var wire 1 B unknown $end
$var tri1 1 C devclrn $end
$var tri1 1 D devpor $end
$var tri1 1 E devoe $end
$var wire 1 F ~QUARTUS_CREATED_GND~I_combout $end
$var wire 1 G Op[3]~input_o $end
$var wire 1 H clk~input_o $end
$var wire 1 I Op[2]~input_o $end
$var wire 1 J inst1|inst4~combout $end
$var wire 1 K inst1|inst|inst~q $end
$var wire 1 L inst1|inst9~combout $end
$var wire 1 M inst1|inst2|inst~feeder_combout $end
$var wire 1 N inst1|inst2|inst~q $end
$var wire 1 O V[0]~input_o $end
$var wire 1 P Op[1]~input_o $end
$var wire 1 Q Op[0]~input_o $end
$var wire 1 R inst1|inst10~combout $end
$var wire 1 S inst1|inst1|inst~q $end
$var wire 1 T inst1|inst5|9~0_combout $end
$var wire 1 U Op[4]~input_o $end
$var wire 1 V Op[5]~input_o $end
$var wire 1 W inst1|inst7|9~0_combout $end
$var wire 1 X inst|inst|inst3|9~0_combout $end
$var wire 1 Y inst1|inst2|inst2~feeder_combout $end
$var wire 1 Z inst1|inst2|inst2~q $end
$var wire 1 [ inst1|inst1|inst2~q $end
$var wire 1 \ inst1|inst|inst2~q $end
$var wire 1 ] inst1|inst7|10~0_combout $end
$var wire 1 ^ V[1]~input_o $end
$var wire 1 _ inst1|inst5|10~0_combout $end
$var wire 1 ` inst|inst|inst3|10~combout $end
$var wire 1 a inst1|inst|inst3~q $end
$var wire 1 b inst1|inst1|inst3~q $end
$var wire 1 c V[2]~input_o $end
$var wire 1 d inst1|inst2|inst3~feeder_combout $end
$var wire 1 e inst1|inst2|inst3~q $end
$var wire 1 f inst1|inst6|9~0_combout $end
$var wire 1 g inst|inst|inst7|inst6|inst~combout $end
$var wire 1 h inst1|inst8|9~0_combout $end
$var wire 1 i inst|inst|inst4|9~0_combout $end
$var wire 1 j inst|inst|inst4|10~0_combout $end
$var wire 1 k inst1|inst1|inst4~q $end
$var wire 1 l inst1|inst2|inst4~feeder_combout $end
$var wire 1 m inst1|inst2|inst4~q $end
$var wire 1 n V[3]~input_o $end
$var wire 1 o inst1|inst|inst4~q $end
$var wire 1 p inst1|inst6|10~0_combout $end
$var wire 1 q inst1|inst8|10~0_combout $end
$var wire 1 r inst|inst|inst4|10~1_combout $end
$var wire 1 s inst|inst|inst4|10~2_combout $end
$upscope $end
$upscope $end
$enddefinitions $end
#0
$dumpvars
0!
b11 "
b1000 #
0$
0%
0&
1'
1(
1)
0*
0+
0,
0-
0.
0/
00
01
02
03
04
05
06
07
08
09
0:
1;
0<
0=
0>
0?
0@
1A
xB
1C
1D
1E
0F
0G
0H
0I
0J
0K
0L
0M
0N
0O
1P
1Q
0R
0S
0T
0U
0V
0W
0X
0Y
0Z
0[
0\
0]
0^
0_
0`
0a
0b
0c
0d
0e
0f
0g
0h
0i
0j
0k
1l
0m
1n
0o
1p
0q
0r
1s
$end
#5000
1!
1H
1J
1o
1/
1q
1?
#10000
b111 "
b1001 #
0!
1O
0H
1I
1*
0J
1T
0q
0?
18
1X
1$
1M
#15000
1!
1H
1R
1k
1S
10
13
1W
1q
1?
1<
#20000
b1111 "
b1011 #
b1011 "
b1010 #
0!
0O
1^
0H
0I
1G
1+
0*
0R
1_
0T
0q
0W
0<
0?
08
19
1`
0X
0$
1%
0M
1Y
#25000
1!
1H
1L
1m
1Z
15
17
1]
1q
1?
1=
1g
#30000
b101011 "
b101001 "
b101000 "
b10 #
b100000 "
b0 #
b100100 "
0!
0^
0n
1V
0H
0Q
0P
1I
0G
0+
1*
0)
0(
0L
0s
1i
0`
0_
0]
1W
1<
0=
09
0%
1&
0'
0g
1X
0Y
1d
0l
1$
0i
1M
0&
0d
#35000
1!
1H
1R
0k
03
0q
0?
1s
1'
1l
#40000
b110100 "
b110101 "
b111101 "
b111001 "
0!
1U
0H
1Q
0I
1G
1+
0*
1(
0R
0s
1i
1`
0X
1q
1]
0W
0p
1T
18
0;
0<
1=
1?
0$
1%
1&
0'
0`
0M
1Y
1d
0l
0%
0Y
#45000
1!
1H
1L
0m
1e
0Z
05
16
07
0]
1h
0q
0?
1>
0=
1s
0i
1`
1%
0&
1'
1Y
0d
1l
#50000
b111011 "
b1000 #
b101011 "
0!
1n
0U
0H
1P
1)
0L
0s
1i
0`
1X
1p
0T
08
1;
1$
0%
1&
0'
0X
1s
1M
0Y
1d
0l
1'
0$
1l
0M
#55000
1!
1H
1L
1m
17
1q
1?
0s
0'
0l
#60000
b1010 #
b100011 "
b110011 "
0!
1U
1^
0H
0G
0+
0L
1_
1s
0i
1`
1X
0h
0>
1$
1%
0&
1'
19
1i
1M
1Y
0d
1l
0`
0%
1&
0Y
1d
#65000
1!
1H
1J
1a
1K
1,
1.
1W
1h
1>
1<
0i
0X
0$
0&
0M
0d
#70000
b10011 "
b10010 "
b10110 "
b10100 "
b10 #
b0 #
b100 "
0!
0^
0n
0U
0V
0H
0Q
0P
1I
1*
0)
0(
0J
1`
0_
0q
0h
1f
1T
18
1:
0>
0?
09
1%
0`
1X
1i
1Y
1&
1$
0%
1d
1M
0Y
#75000
1!
1H
1R
1k
1b
12
13
1h
1q
1?
1>
1j
#80000
b1100 "
b101100 "
b101101 "
b101001 "
0!
1V
0H
1Q
0I
1G
1+
0*
1(
0R
0i
1`
0X
0W
0<
0$
1%
0&
0`
1X
0M
1Y
0d
1$
0%
1M
0Y
#85000
1!
1H
1L
0e
1N
14
06
1W
0h
0>
1<
0j
1i
1`
0X
0$
1%
1&
0s
0M
1Y
1d
0'
0l
#90000
b100001 "
b1 "
b0 "
0!
0V
0H
0Q
0G
0+
0(
0L
1s
0`
1X
1h
1>
1$
0%
1'
1j
1M
0Y
1l
#95000
1!
1H
1J
#100000
0!
0H
0J
#105000
1!
1H
1J
#110000
0!
0H
0J
#115000
1!
1H
1J
#120000
0!
0H
0J
#125000
1!
1H
1J
#130000
0!
0H
0J
#135000
1!
1H
1J
#140000
0!
0H
0J
#145000
1!
1H
1J
#150000
0!
0H
0J
#155000
1!
1H
1J
#160000
0!
0H
0J
#165000
1!
1H
1J
#170000
0!
0H
0J
#175000
1!
1H
1J
#180000
0!
0H
0J
#185000
1!
1H
1J
#190000
0!
0H
0J
#195000
1!
1H
1J
#200000
0!
0H
0J
#205000
1!
1H
1J
#210000
0!
0H
0J
#215000
1!
1H
1J
#220000
0!
0H
0J
#225000
1!
1H
1J
#230000
0!
0H
0J
#235000
1!
1H
1J
#240000
0!
0H
0J
#245000
1!
1H
1J
#250000
0!
0H
0J
#255000
1!
1H
1J
#260000
0!
0H
0J
#265000
1!
1H
1J
#270000
0!
0H
0J
#275000
1!
1H
1J
#280000
0!
0H
0J
#285000
1!
1H
1J
#290000
0!
0H
0J
#295000
1!
1H
1J
#300000
0!
0H
0J
#305000
1!
1H
1J
#310000
0!
0H
0J
#315000
1!
1H
1J
#320000
0!
0H
0J
#325000
1!
1H
1J
#330000
0!
0H
0J
#335000
1!
1H
1J
#340000
0!
0H
0J
#345000
1!
1H
1J
#350000
0!
0H
0J
#355000
1!
1H
1J
#360000
0!
0H
0J
#365000
1!
1H
1J
#370000
0!
0H
0J
#375000
1!
1H
1J
#380000
0!
0H
0J
#385000
1!
1H
1J
#390000
0!
0H
0J
#395000
1!
1H
1J
#400000
0!
0H
0J
#405000
1!
1H
1J
#410000
0!
0H
0J
#415000
1!
1H
1J
#420000
0!
0H
0J
#425000
1!
1H
1J
#430000
0!
0H
0J
#435000
1!
1H
1J
#440000
0!
0H
0J
#445000
1!
1H
1J
#450000
0!
0H
0J
#455000
1!
1H
1J
#460000
0!
0H
0J
#465000
1!
1H
1J
#470000
0!
0H
0J
#475000
1!
1H
1J
#480000
0!
0H
0J
#485000
1!
1H
1J
#490000
0!
0H
0J
#495000
1!
1H
1J
#500000
0!
0H
0J
#505000
1!
1H
1J
#510000
0!
0H
0J
#515000
1!
1H
1J
#520000
0!
0H
0J
#525000
1!
1H
1J
#530000
0!
0H
0J
#535000
1!
1H
1J
#540000
0!
0H
0J
#545000
1!
1H
1J
#550000
0!
0H
0J
#555000
1!
1H
1J
#560000
0!
0H
0J
#565000
1!
1H
1J
#570000
0!
0H
0J
#575000
1!
1H
1J
#580000
0!
0H
0J
#585000
1!
1H
1J
#590000
0!
0H
0J
#595000
1!
1H
1J
#600000
0!
0H
0J
#605000
1!
1H
1J
#610000
0!
0H
0J
#615000
1!
1H
1J
#620000
0!
0H
0J
#625000
1!
1H
1J
#630000
0!
0H
0J
#635000
1!
1H
1J
#640000
0!
0H
0J
#645000
1!
1H
1J
#650000
0!
0H
0J
#655000
1!
1H
1J
#660000
0!
0H
0J
#665000
1!
1H
1J
#670000
0!
0H
0J
#675000
1!
1H
1J
#680000
0!
0H
0J
#685000
1!
1H
1J
#690000
0!
0H
0J
#695000
1!
1H
1J
#700000
0!
0H
0J
#705000
1!
1H
1J
#710000
0!
0H
0J
#715000
1!
1H
1J
#720000
0!
0H
0J
#725000
1!
1H
1J
#730000
0!
0H
0J
#735000
1!
1H
1J
#740000
0!
0H
0J
#745000
1!
1H
1J
#750000
0!
0H
0J
#755000
1!
1H
1J
#760000
0!
0H
0J
#765000
1!
1H
1J
#770000
0!
0H
0J
#775000
1!
1H
1J
#780000
0!
0H
0J
#785000
1!
1H
1J
#790000
0!
0H
0J
#795000
1!
1H
1J
#800000
0!
0H
0J
#805000
1!
1H
1J
#810000
0!
0H
0J
#815000
1!
1H
1J
#820000
0!
0H
0J
#825000
1!
1H
1J
#830000
0!
0H
0J
#835000
1!
1H
1J
#840000
0!
0H
0J
#845000
1!
1H
1J
#850000
0!
0H
0J
#855000
1!
1H
1J
#860000
0!
0H
0J
#865000
1!
1H
1J
#870000
0!
0H
0J
#875000
1!
1H
1J
#880000
0!
0H
0J
#885000
1!
1H
1J
#890000
0!
0H
0J
#895000
1!
1H
1J
#900000
0!
0H
0J
#905000
1!
1H
1J
#910000
0!
0H
0J
#915000
1!
1H
1J
#920000
0!
0H
0J
#925000
1!
1H
1J
#930000
0!
0H
0J
#935000
1!
1H
1J
#940000
0!
0H
0J
#945000
1!
1H
1J
#950000
0!
0H
0J
#955000
1!
1H
1J
#960000
0!
0H
0J
#965000
1!
1H
1J
#970000
0!
0H
0J
#975000
1!
1H
1J
#980000
0!
0H
0J
#985000
1!
1H
1J
#990000
0!
0H
0J
#995000
1!
1H
1J
